{
  "error": false,
  "message": "success",
  "return": [
    {
      "": {
        "functions": [
          {
            "args": [],
            "description": "",
            "function": "GetXContracts",
            "out": [
              {
                "type": "dict"
              }
            ]
          },
          {
            "args": [],
            "description": "",
            "function": "Help",
            "out": [
              {
                "type": "dict"
              }
            ]
          }
        ],
        "xContract": "std",
        "xContract_public_key": ""
      },
      "04219ed1e7fc7630d420b57364a9f33a2d21ca3214ed9067eccfe4990a1bbcc996917e182f6522c03988da3ec0a6423328c04206160fedbe859e686edaec0590eb": {
        "functions": [
          {
            "args": [],
            "description": "",
            "function": "GenerateKey",
            "out": [
              {
                "fields": [
                  {
                    "fields": [
                      {
                        "name": "private_key",
                        "type": "string"
                      },
                      {
                        "name": "public_key",
                        "type": "string"
                      }
                    ],
                    "name": "digital_id",
                    "type": "dict"
                  }
                ],
                "type": "dict"
              }
            ]
          },
          {
            "args": [
              {
                "name": "public_key",
                "type": "string"
              },
              {
                "fields": [
                  {
                    "name": "d",
                    "type": "string"
                  },
                  {
                    "name": "r",
                    "type": "string"
                  },
                  {
                    "name": "s",
                    "type": "string"
                  }
                ],
                "name": "signature",
                "type": "dict"
              }
            ],
            "description": "",
            "function": "Register",
            "out": [
              {
                "type": "bool"
              }
            ]
          },
          {
            "args": [
              {
                "name": "private_key",
                "type": "string"
              },
              {
                "name": "public_key",
                "type": "string"
              },
              {
                "name": "data",
                "type": "string"
              }
            ],
            "description": "",
            "function": "Sign",
            "out": [
              {
                "fields": [
                  {
                    "fields": [
                      {
                        "name": "d",
                        "type": "string"
                      },
                      {
                        "name": "r",
                        "type": "string"
                      },
                      {
                        "name": "s",
                        "type": "string"
                      }
                    ],
                    "name": "signature",
                    "type": "dict"
                  }
                ],
                "type": "dict"
              }
            ]
          },
          {
            "args": [
              {
                "name": "public_key",
                "type": "string"
              },
              {
                "fields": [
                  {
                    "name": "d",
                    "type": "string"
                  },
                  {
                    "name": "r",
                    "type": "string"
                  },
                  {
                    "name": "s",
                    "type": "string"
                  }
                ],
                "name": "signature",
                "type": "dict"
              }
            ],
            "description": "",
            "function": "Verify",
            "out": [
              {
                "type": "bool"
              }
            ]
          },
          {
            "args": [
              {
                "name": "public_key",
                "type": "string"
              },
              {
                "fields": [
                  {
                    "name": "d",
                    "type": "string"
                  },
                  {
                    "name": "r",
                    "type": "string"
                  },
                  {
                    "name": "s",
                    "type": "string"
                  }
                ],
                "name": "signature",
                "type": "dict"
              },
              {
                "name": "field",
                "type": "string"
              },
              {
                "name": "value",
                "types": ["string", "int", "bool", "float"]
              }
            ],
            "description": "",
            "function": "SetProfile",
            "out": [
              {
                "type": "bool"
              }
            ]
          },
          {
            "args": [
              {
                "name": "signer",
                "type": "string"
              },
              {
                "name": "owner",
                "type": "string"
              },
              {
                "name": "certificate",
                "type": "string"
              },
              {
                "fields": [
                  {
                    "name": "d",
                    "type": "string"
                  },
                  {
                    "name": "r",
                    "type": "string"
                  },
                  {
                    "name": "s",
                    "type": "string"
                  }
                ],
                "name": "signature",
                "type": "dict"
              }
            ],
            "description": "",
            "function": "Transfer",
            "out": [
              {
                "type": "bool"
              }
            ]
          },
          {
            "args": [],
            "description": "",
            "function": "GetAllBlocks",
            "out": [
              {
                "type": "list"
              }
            ]
          },
          {
            "args": [
              {
                "name": "hash",
                "type": "string"
              }
            ],
            "description": "",
            "function": "GetBlock",
            "out": [
              {
                "type": "dict"
              }
            ]
          },
          {
            "args": [
              {
                "name": "public_key",
                "type": "string"
              }
            ],
            "description": "",
            "function": "GetDigitalID",
            "out": [
              {
                "type": "dict"
              }
            ]
          }
        ],
        "xContract": "xcontractgenesis/hexantium.go",
        "xContract_public_key": "04219ed1e7fc7630d420b57364a9f33a2d21ca3214ed9067eccfe4990a1bbcc996917e182f6522c03988da3ec0a6423328c04206160fedbe859e686edaec0590eb"
      }
    }
  ],
  "time": 8,
  "xContract": "",
  "xContract_args": {},
  "xContract_function": "Help",
  "xContract_source": "std"
}
